EESchema Schematic File Version 4
EELAYER 30 0
EELAYER END
$Descr A4 11693 8268
encoding utf-8
Sheet 2 3
Title "Audio Spectrum Analyser"
Date "2020-09-09"
Rev "1.0"
Comp ""
Comment1 "License: TAPR Open Hardware v1.0"
Comment2 ""
Comment3 ""
Comment4 ""
$EndDescr
$Comp
L power:GND #PWR035
U 1 1 5F583F8A
P 3650 5800
F 0 "#PWR035" H 3650 5550 50  0001 C CNN
F 1 "GND" H 3655 5627 50  0000 C CNN
F 2 "" H 3650 5800 50  0001 C CNN
F 3 "" H 3650 5800 50  0001 C CNN
	1    3650 5800
	1    0    0    -1  
$EndComp
$Comp
L 4xxx:HEF4093B U7
U 3 2 5F583F96
P 4800 6200
F 0 "U7" H 4800 6525 50  0000 C CNN
F 1 "4093" H 4800 6434 50  0000 C CNN
F 2 "Package_DIP:DIP-14_W7.62mm_LongPads" H 4800 6200 50  0001 C CNN
F 3 "https://assets.nexperia.com/documents/data-sheet/HEF4093B.pdf" H 4800 6200 50  0001 C CNN
	3    4800 6200
	-1   0    0    1   
$EndComp
$Comp
L 4xxx:HEF4093B U7
U 2 1 5F583F9C
P 5850 6650
F 0 "U7" H 5850 6975 50  0000 C CNN
F 1 "4093" H 5850 6884 50  0000 C CNN
F 2 "Package_DIP:DIP-14_W7.62mm_LongPads" H 5850 6650 50  0001 C CNN
F 3 "https://assets.nexperia.com/documents/data-sheet/HEF4093B.pdf" H 5850 6650 50  0001 C CNN
	2    5850 6650
	-1   0    0    -1  
$EndComp
$Comp
L 4xxx:HEF4093B U7
U 1 1 5F583FA2
P 1250 5450
F 0 "U7" H 1250 5650 50  0000 C CNN
F 1 "4093" H 1200 5250 50  0000 C CNN
F 2 "Package_DIP:DIP-14_W7.62mm_LongPads" H 1250 5450 50  0001 C CNN
F 3 "https://assets.nexperia.com/documents/data-sheet/HEF4093B.pdf" H 1250 5450 50  0001 C CNN
	1    1250 5450
	0    1    -1   0   
$EndComp
$Comp
L 74xx:74LS540 U6
U 1 1 5F583FAE
P 4850 4900
F 0 "U6" H 4600 5550 50  0000 C CNN
F 1 "74540" H 5050 4250 50  0000 C CNN
F 2 "Package_DIP:DIP-20_W7.62mm_LongPads" H 4850 4900 50  0001 C CNN
F 3 "74xx/74hc_hct74.pdf" H 4850 4900 50  0001 C CNN
	1    4850 4900
	1    0    0    -1  
$EndComp
Wire Wire Line
	4150 4400 4350 4400
Wire Wire Line
	4350 4500 4150 4500
Wire Wire Line
	4150 4600 4350 4600
Wire Wire Line
	4150 4700 4350 4700
Wire Wire Line
	4150 4800 4350 4800
Wire Wire Line
	4150 4900 4350 4900
Wire Wire Line
	4150 5000 4350 5000
Wire Wire Line
	4150 5100 4350 5100
$Comp
L power:GND #PWR034
U 1 1 5F583FC3
P 4850 5700
F 0 "#PWR034" H 4850 5450 50  0001 C CNN
F 1 "GND" H 4855 5527 50  0000 C CNN
F 2 "" H 4850 5700 50  0001 C CNN
F 3 "" H 4850 5700 50  0001 C CNN
	1    4850 5700
	1    0    0    -1  
$EndComp
Wire Wire Line
	6100 6100 6100 5100
Wire Wire Line
	5100 6100 6100 6100
Wire Wire Line
	3150 4700 3150 6200
$Comp
L power:+5V #PWR021
U 1 1 5F583FD8
P 3650 4000
F 0 "#PWR021" H 3650 3850 50  0001 C CNN
F 1 "+5V" H 3550 4100 50  0000 C CNN
F 2 "" H 3650 4000 50  0001 C CNN
F 3 "" H 3650 4000 50  0001 C CNN
	1    3650 4000
	1    0    0    -1  
$EndComp
$Comp
L power:+5V #PWR022
U 1 1 5F583FDE
P 4850 4000
F 0 "#PWR022" H 4850 3850 50  0001 C CNN
F 1 "+5V" H 4750 4100 50  0000 C CNN
F 2 "" H 4850 4000 50  0001 C CNN
F 3 "" H 4850 4000 50  0001 C CNN
	1    4850 4000
	-1   0    0    -1  
$EndComp
$Comp
L power:+5V #PWR046
U 1 1 5F583FE4
P 6400 6400
F 0 "#PWR046" H 6400 6250 50  0001 C CNN
F 1 "+5V" H 6300 6500 50  0000 C CNN
F 2 "" H 6400 6400 50  0001 C CNN
F 3 "" H 6400 6400 50  0001 C CNN
	1    6400 6400
	-1   0    0    -1  
$EndComp
$Comp
L Device:C_Small C21
U 1 1 5F583FEA
P 6400 6600
F 0 "C21" H 6308 6554 50  0000 R CNN
F 1 "1u" H 6308 6645 50  0000 R CNN
F 2 "Capacitor_SMD:C_0805_2012Metric_Pad1.15x1.40mm_HandSolder" H 6400 6600 50  0001 C CNN
F 3 "~" H 6400 6600 50  0001 C CNN
	1    6400 6600
	-1   0    0    1   
$EndComp
Wire Wire Line
	6400 6700 6400 6750
Wire Wire Line
	6400 6400 6400 6450
$Comp
L Device:R_US R10
U 1 1 5F583FF2
P 6400 7000
F 0 "R10" H 6333 6954 50  0000 R CNN
F 1 "120k" H 6333 7045 50  0000 R CNN
F 2 "Capacitor_SMD:C_1206_3216Metric_Pad1.42x1.75mm_HandSolder" V 6440 6990 50  0001 C CNN
F 3 "~" H 6400 7000 50  0001 C CNN
	1    6400 7000
	-1   0    0    1   
$EndComp
Wire Wire Line
	6400 6850 6400 6750
Connection ~ 6400 6750
Wire Wire Line
	6150 6550 6250 6550
Wire Wire Line
	6250 6550 6250 6450
Wire Wire Line
	6250 6450 6400 6450
Connection ~ 6400 6450
Wire Wire Line
	6400 6450 6400 6500
$Comp
L power:GND #PWR050
U 1 1 5F583FFF
P 6400 7250
F 0 "#PWR050" H 6400 7000 50  0001 C CNN
F 1 "GND" H 6405 7077 50  0000 C CNN
F 2 "" H 6400 7250 50  0001 C CNN
F 3 "" H 6400 7250 50  0001 C CNN
	1    6400 7250
	-1   0    0    -1  
$EndComp
Wire Wire Line
	6400 7150 6400 7200
Wire Wire Line
	6400 6750 6250 6750
Wire Wire Line
	6250 6850 6250 6750
Connection ~ 6250 6750
Wire Wire Line
	6250 6750 6150 6750
Wire Wire Line
	6250 7150 6250 7200
Wire Wire Line
	6400 7200 6250 7200
Connection ~ 6400 7200
Wire Wire Line
	6400 7200 6400 7250
Wire Wire Line
	5200 6300 5100 6300
Text Label 5500 6650 2    50   ~ 0
RST
$Comp
L Device:C_Small C10
U 1 1 5F584017
P 4650 4050
F 0 "C10" V 4550 4050 50  0000 C CNN
F 1 "100n" V 4750 4050 50  0000 C CNN
F 2 "Capacitor_SMD:C_0805_2012Metric_Pad1.15x1.40mm_HandSolder" H 4650 4050 50  0001 C CNN
F 3 "~" H 4650 4050 50  0001 C CNN
	1    4650 4050
	0    -1   1    0   
$EndComp
Wire Wire Line
	4850 4000 4850 4050
Wire Wire Line
	4750 4050 4850 4050
Connection ~ 4850 4050
Wire Wire Line
	4850 4050 4850 4100
Wire Wire Line
	3650 4000 3650 4050
Wire Wire Line
	3650 4050 3750 4050
Connection ~ 3650 4050
Wire Wire Line
	3650 4050 3650 4100
$Comp
L Device:C_Small C9
U 1 1 5F584025
P 3850 4050
F 0 "C9" V 3750 4050 50  0000 C CNN
F 1 "100n" V 3950 4050 50  0000 C CNN
F 2 "Capacitor_SMD:C_0805_2012Metric_Pad1.15x1.40mm_HandSolder" H 3850 4050 50  0001 C CNN
F 3 "~" H 3850 4050 50  0001 C CNN
	1    3850 4050
	0    1    1    0   
$EndComp
$Comp
L power:GND #PWR024
U 1 1 5F58402B
P 4550 4050
F 0 "#PWR024" H 4550 3800 50  0001 C CNN
F 1 "GND" H 4555 3877 50  0000 C CNN
F 2 "" H 4550 4050 50  0001 C CNN
F 3 "" H 4550 4050 50  0001 C CNN
	1    4550 4050
	0    1    -1   0   
$EndComp
$Comp
L power:GND #PWR023
U 1 1 5F584031
P 3950 4050
F 0 "#PWR023" H 3950 3800 50  0001 C CNN
F 1 "GND" H 3955 3877 50  0000 C CNN
F 2 "" H 3950 4050 50  0001 C CNN
F 3 "" H 3950 4050 50  0001 C CNN
	1    3950 4050
	0    -1   -1   0   
$EndComp
$Comp
L power:GND #PWR028
U 1 1 5F584037
P 3150 4500
F 0 "#PWR028" H 3150 4250 50  0001 C CNN
F 1 "GND" V 3250 4450 50  0000 C CNN
F 2 "" H 3150 4500 50  0001 C CNN
F 3 "" H 3150 4500 50  0001 C CNN
	1    3150 4500
	0    1    1    0   
$EndComp
Wire Wire Line
	1900 4600 1950 4600
Wire Wire Line
	1950 4050 1250 4050
Wire Wire Line
	1250 4050 1250 4400
Wire Wire Line
	1250 4400 1300 4400
Wire Wire Line
	1300 4500 1250 4500
Wire Wire Line
	1250 4500 1250 4900
$Comp
L Device:R_US R9
U 1 1 5F584044
P 900 5450
F 0 "R9" H 833 5404 50  0000 R CNN
F 1 "20k" H 833 5495 50  0000 R CNN
F 2 "Capacitor_SMD:C_1206_3216Metric_Pad1.42x1.75mm_HandSolder" V 940 5440 50  0001 C CNN
F 3 "~" H 900 5450 50  0001 C CNN
	1    900  5450
	1    0    0    1   
$EndComp
Wire Wire Line
	900  5300 900  5100
Wire Wire Line
	900  5100 1250 5100
Connection ~ 1250 5100
Wire Wire Line
	1250 5100 1250 5150
Wire Wire Line
	1150 5750 1150 5850
Wire Wire Line
	1150 5850 900  5850
Wire Wire Line
	900  5850 900  5600
$Comp
L Device:C_Small C17
U 1 1 5F584051
P 900 6050
F 0 "C17" H 808 6004 50  0000 R CNN
F 1 "100n" H 808 6095 50  0000 R CNN
F 2 "Capacitor_SMD:C_0805_2012Metric_Pad1.15x1.40mm_HandSolder" H 900 6050 50  0001 C CNN
F 3 "~" H 900 6050 50  0001 C CNN
	1    900  6050
	1    0    0    1   
$EndComp
Wire Wire Line
	900  5950 900  5850
Connection ~ 900  5850
$Comp
L power:GND #PWR044
U 1 1 5F584059
P 900 6150
F 0 "#PWR044" H 900 5900 50  0001 C CNN
F 1 "GND" H 905 5977 50  0000 C CNN
F 2 "" H 900 6150 50  0001 C CNN
F 3 "" H 900 6150 50  0001 C CNN
	1    900  6150
	1    0    0    -1  
$EndComp
$Comp
L 74xx:74HC74 U4
U 2 1 5F58405F
P 1600 4500
F 0 "U4" H 1450 4750 50  0000 C CNN
F 1 "74HC74" H 1750 4250 50  0000 C CNN
F 2 "Package_DIP:DIP-14_W7.62mm_LongPads" H 1600 4500 50  0001 C CNN
F 3 "74xx/74hc_hct74.pdf" H 1600 4500 50  0001 C CNN
	2    1600 4500
	1    0    0    -1  
$EndComp
$Comp
L power:+5V #PWR025
U 1 1 5F584065
P 1600 4200
F 0 "#PWR025" H 1600 4050 50  0001 C CNN
F 1 "+5V" H 1700 4300 50  0000 C CNN
F 2 "" H 1600 4200 50  0001 C CNN
F 3 "" H 1600 4200 50  0001 C CNN
	1    1600 4200
	1    0    0    -1  
$EndComp
Wire Wire Line
	1600 4800 1600 5100
Wire Wire Line
	1600 5850 1350 5850
Wire Wire Line
	1350 5850 1350 5750
Connection ~ 5200 6650
Wire Wire Line
	5200 6650 5200 6300
$Comp
L 74xx:74HC74 U4
U 1 1 5F584072
P 2550 4500
F 0 "U4" H 2400 4750 50  0000 C CNN
F 1 "74HC74" H 2700 4250 50  0000 C CNN
F 2 "Package_DIP:DIP-14_W7.62mm_LongPads" H 2550 4500 50  0001 C CNN
F 3 "74xx/74hc_hct74.pdf" H 2550 4500 50  0001 C CNN
	1    2550 4500
	1    0    0    -1  
$EndComp
$Comp
L power:+5V #PWR026
U 1 1 5F584078
P 2550 4200
F 0 "#PWR026" H 2550 4050 50  0001 C CNN
F 1 "+5V" H 2650 4300 50  0000 C CNN
F 2 "" H 2550 4200 50  0001 C CNN
F 3 "" H 2550 4200 50  0001 C CNN
	1    2550 4200
	1    0    0    -1  
$EndComp
Wire Wire Line
	2550 4800 2550 5100
Wire Wire Line
	2550 5100 1600 5100
Connection ~ 1600 5100
Wire Wire Line
	1600 5100 1600 5850
$Comp
L power:+5V #PWR01
U 1 1 5F584089
P 5000 1200
F 0 "#PWR01" H 5000 1050 50  0001 C CNN
F 1 "+5V" H 4900 1300 50  0000 C CNN
F 2 "" H 5000 1200 50  0001 C CNN
F 3 "" H 5000 1200 50  0001 C CNN
	1    5000 1200
	1    0    0    -1  
$EndComp
$Comp
L Device:C_Small C1
U 1 1 5F58408F
P 5200 1250
F 0 "C1" V 5100 1250 50  0000 C CNN
F 1 "100n" V 5300 1250 50  0000 C CNN
F 2 "Capacitor_SMD:C_0805_2012Metric_Pad1.15x1.40mm_HandSolder" H 5200 1250 50  0001 C CNN
F 3 "~" H 5200 1250 50  0001 C CNN
	1    5200 1250
	0    1    1    0   
$EndComp
Wire Wire Line
	5000 1200 5000 1250
Wire Wire Line
	5100 1250 5000 1250
Connection ~ 5000 1250
$Comp
L power:GND #PWR03
U 1 1 5F584099
P 5300 1250
F 0 "#PWR03" H 5300 1000 50  0001 C CNN
F 1 "GND" H 5305 1077 50  0000 C CNN
F 2 "" H 5300 1250 50  0001 C CNN
F 3 "" H 5300 1250 50  0001 C CNN
	1    5300 1250
	0    -1   -1   0   
$EndComp
$Comp
L Analog:LF398_DIP8 U2
U 1 1 5F5840AD
P 6750 2000
F 0 "U2" H 6950 1900 50  0000 L CNN
F 1 "LF398" H 6950 1800 50  0000 L CNN
F 2 "Package_DIP:DIP-8_W7.62mm_LongPads" H 6750 2000 50  0001 C CNN
F 3 "http://www.ti.com/lit/ds/symlink/lf398-n.pdf" H 6750 2000 50  0001 C CNN
	1    6750 2000
	1    0    0    -1  
$EndComp
$Comp
L Device:C_Small C7
U 1 1 5F5840B9
P 4400 2400
F 0 "C7" H 4350 2450 50  0000 R CNN
F 1 "33p" H 4350 2300 50  0000 R CNN
F 2 "Capacitor_SMD:C_0805_2012Metric_Pad1.15x1.40mm_HandSolder" H 4400 2400 50  0001 C CNN
F 3 "~" H 4400 2400 50  0001 C CNN
	1    4400 2400
	-1   0    0    -1  
$EndComp
$Comp
L power:GND #PWR016
U 1 1 5F5840BF
P 4400 2500
F 0 "#PWR016" H 4400 2250 50  0001 C CNN
F 1 "GND" H 4405 2327 50  0000 C CNN
F 2 "" H 4400 2500 50  0001 C CNN
F 3 "" H 4400 2500 50  0001 C CNN
	1    4400 2500
	1    0    0    -1  
$EndComp
Wire Wire Line
	4400 2250 4400 2300
$Comp
L Device:C_Small C5
U 1 1 5F5840CD
P 5550 2250
F 0 "C5" H 5550 2350 50  0000 R CNN
F 1 "100n" H 5550 2150 50  0000 R CNN
F 2 "Capacitor_SMD:C_0805_2012Metric_Pad1.15x1.40mm_HandSolder" H 5550 2250 50  0001 C CNN
F 3 "~" H 5550 2250 50  0001 C CNN
	1    5550 2250
	-1   0    0    -1  
$EndComp
$Comp
L power:GND #PWR013
U 1 1 5F5840D3
P 5550 2350
F 0 "#PWR013" H 5550 2100 50  0001 C CNN
F 1 "GND" H 5555 2177 50  0000 C CNN
F 2 "" H 5550 2350 50  0001 C CNN
F 3 "" H 5550 2350 50  0001 C CNN
	1    5550 2350
	1    0    0    -1  
$EndComp
Wire Wire Line
	5550 2150 5550 2100
$Comp
L Device:R_US R6
U 1 1 5F5840DB
P 4200 2250
F 0 "R6" V 4150 2400 50  0000 R CNN
F 1 "200k" V 4300 2350 50  0000 R CNN
F 2 "Capacitor_SMD:C_1206_3216Metric_Pad1.42x1.75mm_HandSolder" V 4240 2240 50  0001 C CNN
F 3 "~" H 4200 2250 50  0001 C CNN
	1    4200 2250
	0    -1   1    0   
$EndComp
Wire Wire Line
	4350 2250 4400 2250
Connection ~ 4400 2250
$Comp
L power:+5V #PWR011
U 1 1 5F5840E3
P 4050 2250
F 0 "#PWR011" H 4050 2100 50  0001 C CNN
F 1 "+5V" V 4050 2450 50  0000 C CNN
F 2 "" H 4050 2250 50  0001 C CNN
F 3 "" H 4050 2250 50  0001 C CNN
	1    4050 2250
	0    -1   -1   0   
$EndComp
$Comp
L Device:C_Small C8
U 1 1 5F5840F1
P 6850 2400
F 0 "C8" H 6758 2354 50  0000 R CNN
F 1 "1u" H 6758 2445 50  0000 R CNN
F 2 "Capacitor_SMD:C_0805_2012Metric_Pad1.15x1.40mm_HandSolder" H 6850 2400 50  0001 C CNN
F 3 "~" H 6850 2400 50  0001 C CNN
	1    6850 2400
	-1   0    0    -1  
$EndComp
$Comp
L power:GND #PWR017
U 1 1 5F5840F7
P 6850 2500
F 0 "#PWR017" H 6850 2250 50  0001 C CNN
F 1 "GND" H 6855 2327 50  0000 C CNN
F 2 "" H 6850 2500 50  0001 C CNN
F 3 "" H 6850 2500 50  0001 C CNN
	1    6850 2500
	1    0    0    -1  
$EndComp
$Comp
L power:GND #PWR09
U 1 1 5F584104
P 6450 2100
F 0 "#PWR09" H 6450 1850 50  0001 C CNN
F 1 "GND" V 6450 1900 50  0000 C CNN
F 2 "" H 6450 2100 50  0001 C CNN
F 3 "" H 6450 2100 50  0001 C CNN
	1    6450 2100
	0    1    1    0   
$EndComp
Text GLabel 6400 2000 0    50   Input ~ 0
S_H
$Comp
L Device:C_Small C3
U 1 1 5F58410C
P 6450 1650
F 0 "C3" V 6350 1800 50  0000 R CNN
F 1 "100n" V 6550 1750 50  0000 R CNN
F 2 "Capacitor_SMD:C_0805_2012Metric_Pad1.15x1.40mm_HandSolder" H 6450 1650 50  0001 C CNN
F 3 "~" H 6450 1650 50  0001 C CNN
	1    6450 1650
	0    -1   1    0   
$EndComp
$Comp
L Device:C_Small C6
U 1 1 5F584112
P 6450 2350
F 0 "C6" V 6350 2500 50  0000 R CNN
F 1 "100n" V 6550 2450 50  0000 R CNN
F 2 "Capacitor_SMD:C_0805_2012Metric_Pad1.15x1.40mm_HandSolder" H 6450 2350 50  0001 C CNN
F 3 "~" H 6450 2350 50  0001 C CNN
	1    6450 2350
	0    -1   1    0   
$EndComp
$Comp
L power:GND #PWR014
U 1 1 5F584118
P 6350 2350
F 0 "#PWR014" H 6350 2100 50  0001 C CNN
F 1 "GND" V 6350 2150 50  0000 C CNN
F 2 "" H 6350 2350 50  0001 C CNN
F 3 "" H 6350 2350 50  0001 C CNN
	1    6350 2350
	0    1    1    0   
$EndComp
$Comp
L power:GND #PWR06
U 1 1 5F58411E
P 6350 1650
F 0 "#PWR06" H 6350 1400 50  0001 C CNN
F 1 "GND" V 6350 1450 50  0000 C CNN
F 2 "" H 6350 1650 50  0001 C CNN
F 3 "" H 6350 1650 50  0001 C CNN
	1    6350 1650
	0    1    1    0   
$EndComp
Wire Wire Line
	6550 1650 6650 1650
Wire Wire Line
	6650 1650 6650 1600
Wire Wire Line
	6650 1700 6650 1650
Connection ~ 6650 1650
Wire Wire Line
	6650 2300 6650 2350
Wire Wire Line
	6550 2350 6650 2350
Connection ~ 6650 2350
Wire Wire Line
	6650 2350 6650 2400
$Comp
L LM391x:LM3914 U3
U 1 1 5F584132
P 8200 2050
F 0 "U3" H 7950 2650 50  0000 C CNN
F 1 "LM3914" H 8350 1450 50  0000 C CNN
F 2 "Package_DIP:DIP-18_W7.62mm_LongPads" H 8200 2050 50  0001 C CNN
F 3 "https://www.ti.com/lit/ds/symlink/lm3914.pdf" H 8200 2050 50  0001 C CNN
	1    8200 2050
	1    0    0    -1  
$EndComp
$Comp
L power:+5V #PWR02
U 1 1 5F584138
P 8200 1200
F 0 "#PWR02" H 8200 1050 50  0001 C CNN
F 1 "+5V" H 8100 1300 50  0000 C CNN
F 2 "" H 8200 1200 50  0001 C CNN
F 3 "" H 8200 1200 50  0001 C CNN
	1    8200 1200
	1    0    0    -1  
$EndComp
$Comp
L Device:C_Small C2
U 1 1 5F58413E
P 8400 1250
F 0 "C2" V 8300 1250 50  0000 C CNN
F 1 "10u" V 8500 1250 50  0000 C CNN
F 2 "Capacitor_SMD:C_0805_2012Metric_Pad1.15x1.40mm_HandSolder" H 8400 1250 50  0001 C CNN
F 3 "~" H 8400 1250 50  0001 C CNN
	1    8400 1250
	0    1    1    0   
$EndComp
Wire Wire Line
	8200 1200 8200 1250
Wire Wire Line
	8300 1250 8200 1250
Connection ~ 8200 1250
Wire Wire Line
	8200 1250 8200 1300
$Comp
L power:GND #PWR04
U 1 1 5F584148
P 8500 1250
F 0 "#PWR04" H 8500 1000 50  0001 C CNN
F 1 "GND" H 8505 1077 50  0000 C CNN
F 2 "" H 8500 1250 50  0001 C CNN
F 3 "" H 8500 1250 50  0001 C CNN
	1    8500 1250
	0    -1   -1   0   
$EndComp
$Comp
L power:GND #PWR018
U 1 1 5F58414E
P 8200 2950
F 0 "#PWR018" H 8200 2700 50  0001 C CNN
F 1 "GND" H 8205 2777 50  0000 C CNN
F 2 "" H 8200 2950 50  0001 C CNN
F 3 "" H 8200 2950 50  0001 C CNN
	1    8200 2950
	1    0    0    -1  
$EndComp
Wire Wire Line
	7700 2000 7050 2000
Wire Wire Line
	8200 2800 8200 2850
Wire Wire Line
	7650 2500 7700 2500
Connection ~ 8200 2850
Wire Wire Line
	7700 1600 7650 1600
Wire Wire Line
	7650 1250 8200 1250
Wire Wire Line
	7650 1250 7650 1600
Wire Wire Line
	7700 2300 7650 2300
Wire Wire Line
	7650 2300 7650 2200
Wire Wire Line
	7650 2200 7700 2200
$Comp
L Device:R_US R7
U 1 1 5F584186
P 7250 2650
F 0 "R7" V 7150 2700 50  0000 R CNN
F 1 "620" V 7350 2650 50  0000 C CNN
F 2 "Capacitor_SMD:C_1206_3216Metric_Pad1.42x1.75mm_HandSolder" V 7290 2640 50  0001 C CNN
F 3 "~" H 7250 2650 50  0001 C CNN
	1    7250 2650
	1    0    0    -1  
$EndComp
Wire Wire Line
	7250 2850 7250 2800
Connection ~ 7250 2400
Wire Wire Line
	7700 2400 7250 2400
Wire Wire Line
	7250 2400 7250 2500
Text Notes 7400 2150 0    50   ~ 0
≈20mA
Text Notes 7300 2500 0    50   ~ 0
≈2.5V
Wire Notes Line width 20 style dash_dot rgb(255, 0, 0)
	9200 900  9200 3300
Wire Notes Line width 20 style dash_dot rgb(255, 0, 0)
	9200 3300 2750 3300
Wire Notes Line width 20 style dash_dot rgb(255, 0, 0)
	2750 3300 2750 900 
Wire Notes Line width 20 style dash_dot rgb(255, 0, 0)
	2750 900  9200 900 
Wire Notes Line width 20 style dash_dot rgb(255, 0, 0)
	600  3750 6850 3750
Wire Notes Line width 20 style dash_dot rgb(255, 0, 0)
	6850 3750 6850 7650
Wire Notes Line width 20 style dash_dot rgb(255, 0, 0)
	6850 7650 600  7650
Wire Notes Line width 20 style dash_dot rgb(255, 0, 0)
	600  7650 600  3750
Text Notes 650  7550 0    120  ~ 24
Timing module
Wire Notes Line width 20 style dash_dot rgb(255, 0, 0)
	600  7300 2100 7300
Wire Notes Line width 20 style dash_dot rgb(255, 0, 0)
	2100 7300 2100 7650
Text Notes 2850 3200 0    120  ~ 24
Input Conditioning&\nMultiplexing Module
Wire Notes Line width 20 style dash_dot rgb(255, 0, 0)
	2750 2750 4750 2750
Wire Notes Line width 20 style dash_dot rgb(255, 0, 0)
	4750 2750 4750 3300
$Comp
L power:GND #PWR07
U 1 1 5F5841B3
P 3500 1950
F 0 "#PWR07" H 3500 1700 50  0001 C CNN
F 1 "GND" H 3600 1850 50  0000 C CNN
F 2 "" H 3500 1950 50  0001 C CNN
F 3 "" H 3500 1950 50  0001 C CNN
	1    3500 1950
	1    0    0    -1  
$EndComp
$Comp
L 4xxx:HEF4093B U?
U 5 1 5F5935AD
P 2000 6500
AR Path="/5F5935AD" Ref="U?"  Part="5" 
AR Path="/5F5665FD/5F5935AD" Ref="U7"  Part="5" 
F 0 "U7" H 1700 6850 50  0000 L CNN
F 1 "4093" V 2250 6200 50  0000 L CNN
F 2 "Package_DIP:DIP-14_W7.62mm_LongPads" H 2000 6500 50  0001 C CNN
F 3 "https://assets.nexperia.com/documents/data-sheet/HEF4093B.pdf" H 2000 6500 50  0001 C CNN
	5    2000 6500
	1    0    0    -1  
$EndComp
$Comp
L Device:C_Small C?
U 1 1 5F5935B3
P 1600 6450
AR Path="/5F5935B3" Ref="C?"  Part="1" 
AR Path="/5F5665FD/5F5935B3" Ref="C19"  Part="1" 
F 0 "C19" H 1600 6350 50  0000 R CNN
F 1 "100n" V 1700 6550 50  0000 R CNN
F 2 "Capacitor_SMD:C_0805_2012Metric_Pad1.15x1.40mm_HandSolder" H 1600 6450 50  0001 C CNN
F 3 "~" H 1600 6450 50  0001 C CNN
	1    1600 6450
	1    0    0    1   
$EndComp
Wire Wire Line
	1600 6550 1600 7000
Wire Wire Line
	1600 7000 2000 7000
Wire Wire Line
	1600 6350 1600 6000
Wire Wire Line
	1600 6000 2000 6000
$Comp
L power:GND #PWR?
U 1 1 5F5935BD
P 2000 7050
AR Path="/5F5935BD" Ref="#PWR?"  Part="1" 
AR Path="/5F5665FD/5F5935BD" Ref="#PWR047"  Part="1" 
F 0 "#PWR047" H 2000 6800 50  0001 C CNN
F 1 "GND" H 2005 6877 50  0000 C CNN
F 2 "" H 2000 7050 50  0001 C CNN
F 3 "" H 2000 7050 50  0001 C CNN
	1    2000 7050
	1    0    0    -1  
$EndComp
Wire Wire Line
	2000 7050 2000 7000
Connection ~ 2000 7000
$Comp
L power:+5V #PWR?
U 1 1 5F5935C5
P 2000 5950
AR Path="/5F5935C5" Ref="#PWR?"  Part="1" 
AR Path="/5F5665FD/5F5935C5" Ref="#PWR042"  Part="1" 
F 0 "#PWR042" H 2000 5800 50  0001 C CNN
F 1 "+5V" H 2015 6123 50  0000 C CNN
F 2 "" H 2000 5950 50  0001 C CNN
F 3 "" H 2000 5950 50  0001 C CNN
	1    2000 5950
	1    0    0    -1  
$EndComp
Wire Wire Line
	2000 5950 2000 6000
Connection ~ 2000 6000
$Comp
L Device:C_Small C?
U 1 1 5F5935CD
P 2400 6450
AR Path="/5F5935CD" Ref="C?"  Part="1" 
AR Path="/5F5665FD/5F5935CD" Ref="C20"  Part="1" 
F 0 "C20" H 2400 6350 50  0000 R CNN
F 1 "100n" V 2500 6550 50  0000 R CNN
F 2 "Capacitor_SMD:C_0805_2012Metric_Pad1.15x1.40mm_HandSolder" H 2400 6450 50  0001 C CNN
F 3 "~" H 2400 6450 50  0001 C CNN
	1    2400 6450
	1    0    0    1   
$EndComp
Wire Wire Line
	2400 6550 2400 7000
Wire Wire Line
	2400 7000 2800 7000
Wire Wire Line
	2400 6350 2400 6000
Wire Wire Line
	2400 6000 2800 6000
$Comp
L power:GND #PWR?
U 1 1 5F5935D7
P 2800 7050
AR Path="/5F5935D7" Ref="#PWR?"  Part="1" 
AR Path="/5F5665FD/5F5935D7" Ref="#PWR048"  Part="1" 
F 0 "#PWR048" H 2800 6800 50  0001 C CNN
F 1 "GND" H 2805 6877 50  0000 C CNN
F 2 "" H 2800 7050 50  0001 C CNN
F 3 "" H 2800 7050 50  0001 C CNN
	1    2800 7050
	1    0    0    -1  
$EndComp
Wire Wire Line
	2800 7050 2800 7000
Wire Wire Line
	2800 6100 2800 6000
Wire Wire Line
	2800 6900 2800 7000
Connection ~ 2800 7000
$Comp
L 74xx:74HC74 U?
U 3 1 5F5935E9
P 2800 6500
AR Path="/5F5935E9" Ref="U?"  Part="3" 
AR Path="/5F5665FD/5F5935E9" Ref="U4"  Part="3" 
F 0 "U4" H 2650 6850 50  0000 C CNN
F 1 "74HC74" V 3050 6350 50  0000 C CNN
F 2 "Package_DIP:DIP-14_W7.62mm_LongPads" H 2800 6500 50  0001 C CNN
F 3 "74xx/74hc_hct74.pdf" H 2800 6500 50  0001 C CNN
	3    2800 6500
	1    0    0    -1  
$EndComp
$Comp
L Connector_Generic:Conn_01x10 J2
U 1 1 5F584174
P 8900 2100
F 0 "J2" H 8850 1500 50  0000 L CNN
F 1 "Conn_01x10" H 8980 2001 50  0001 L CNN
F 2 "Connector_PinSocket_2.54mm:PinSocket_1x10_P2.54mm_Vertical" H 8900 2100 50  0001 C CNN
F 3 "~" H 8900 2100 50  0001 C CNN
	1    8900 2100
	1    0    0    1   
$EndComp
$Comp
L power:GND #PWR030
U 1 1 5F83DB53
P 4350 5400
F 0 "#PWR030" H 4350 5150 50  0001 C CNN
F 1 "GND" V 4250 5350 50  0000 C CNN
F 2 "" H 4350 5400 50  0001 C CNN
F 3 "" H 4350 5400 50  0001 C CNN
	1    4350 5400
	0    1    -1   0   
$EndComp
Text GLabel 4350 5300 0    50   Input ~ 0
EN
$Comp
L Diode:1N4148 D2
U 1 1 5F584006
P 6250 7000
F 0 "D2" V 6204 7080 50  0000 L CNN
F 1 "1N4148" V 6295 7080 50  0000 L CNN
F 2 "Diode_SMD:D_1206_3216Metric" H 6250 6825 50  0001 C CNN
F 3 "https://assets.nexperia.com/documents/data-sheet/1N4148_1N4448.pdf" H 6250 7000 50  0001 C CNN
	1    6250 7000
	0    -1   1    0   
$EndComp
Wire Wire Line
	5550 6650 5200 6650
$Comp
L power:+5V #PWR049
U 1 1 5F823CC7
P 5150 7200
F 0 "#PWR049" H 5150 7050 50  0001 C CNN
F 1 "+5V" V 5150 7400 50  0000 C CNN
F 2 "" H 5150 7200 50  0001 C CNN
F 3 "" H 5150 7200 50  0001 C CNN
	1    5150 7200
	0    1    1    0   
$EndComp
Text GLabel 4550 7100 0    50   Input ~ 0
EN
$Comp
L 4xxx:HEF4093B U7
U 4 1 5F583FA8
P 4850 7100
F 0 "U7" H 4850 7425 50  0000 C CNN
F 1 "4093" H 4850 7334 50  0000 C CNN
F 2 "Package_DIP:DIP-14_W7.62mm_LongPads" H 4850 7100 50  0001 C CNN
F 3 "https://assets.nexperia.com/documents/data-sheet/HEF4093B.pdf" H 4850 7100 50  0001 C CNN
	4    4850 7100
	-1   0    0    1   
$EndComp
Wire Wire Line
	5150 7000 5200 7000
Wire Wire Line
	5200 7000 5200 6650
Wire Wire Line
	6400 2000 6450 2000
$Comp
L MAX680:MAX680 U9
U 1 1 5F598844
P 10300 5700
F 0 "U9" H 10000 6150 50  0000 C CNN
F 1 "MAX680" H 10500 5250 50  0000 C CNN
F 2 "Package_DIP:DIP-8_W7.62mm_LongPads" H 9800 5850 50  0001 C CNN
F 3 "https://datasheets.maximintegrated.com/en/ds/MAX680-MAX681.pdf" H 10300 5600 50  0001 C CNN
	1    10300 5700
	1    0    0    -1  
$EndComp
$Comp
L power:+10V #PWR05
U 1 1 5F59B0C5
P 6650 1600
F 0 "#PWR05" H 6650 1450 50  0001 C CNN
F 1 "+10V" H 6665 1773 50  0000 C CNN
F 2 "" H 6650 1600 50  0001 C CNN
F 3 "" H 6650 1600 50  0001 C CNN
	1    6650 1600
	1    0    0    -1  
$EndComp
$Comp
L power:-10V #PWR015
U 1 1 5F59C277
P 6650 2400
F 0 "#PWR015" H 6650 2500 50  0001 C CNN
F 1 "-10V" H 6665 2573 50  0000 C CNN
F 2 "" H 6650 2400 50  0001 C CNN
F 3 "" H 6650 2400 50  0001 C CNN
	1    6650 2400
	-1   0    0    1   
$EndComp
$Comp
L Device:C_Small C12
U 1 1 5F59EF6C
P 9800 5500
F 0 "C12" H 9709 5454 50  0000 R CNN
F 1 "22u" H 9709 5545 50  0000 R CNN
F 2 "Capacitor_SMD:C_1206_3216Metric_Pad1.42x1.75mm_HandSolder" H 9800 5500 50  0001 C CNN
F 3 "~" H 9800 5500 50  0001 C CNN
	1    9800 5500
	1    0    0    1   
$EndComp
$Comp
L Device:C_Small C16
U 1 1 5F5A2522
P 9800 5900
F 0 "C16" H 9709 5854 50  0000 R CNN
F 1 "22u" H 9709 5945 50  0000 R CNN
F 2 "Capacitor_SMD:C_1206_3216Metric_Pad1.42x1.75mm_HandSolder" H 9800 5900 50  0001 C CNN
F 3 "~" H 9800 5900 50  0001 C CNN
	1    9800 5900
	1    0    0    1   
$EndComp
$Comp
L power:GND #PWR045
U 1 1 5F5A375E
P 10300 6200
F 0 "#PWR045" H 10300 5950 50  0001 C CNN
F 1 "GND" H 10305 6027 50  0000 C CNN
F 2 "" H 10300 6200 50  0001 C CNN
F 3 "" H 10300 6200 50  0001 C CNN
	1    10300 6200
	1    0    0    -1  
$EndComp
$Comp
L power:+5V #PWR029
U 1 1 5F5A3B04
P 10300 5200
F 0 "#PWR029" H 10300 5050 50  0001 C CNN
F 1 "+5V" H 10200 5300 50  0000 C CNN
F 2 "" H 10300 5200 50  0001 C CNN
F 3 "" H 10300 5200 50  0001 C CNN
	1    10300 5200
	1    0    0    -1  
$EndComp
$Comp
L Device:C_Small C11
U 1 1 5F5A42C7
P 10850 5350
F 0 "C11" H 10758 5396 50  0000 R CNN
F 1 "22u" H 10758 5305 50  0000 R CNN
F 2 "Capacitor_SMD:C_1206_3216Metric_Pad1.42x1.75mm_HandSolder" H 10850 5350 50  0001 C CNN
F 3 "~" H 10850 5350 50  0001 C CNN
	1    10850 5350
	-1   0    0    -1  
$EndComp
$Comp
L Device:C_Small C18
U 1 1 5F5A53DB
P 10850 6050
F 0 "C18" H 10758 6096 50  0000 R CNN
F 1 "22u" H 10758 6005 50  0000 R CNN
F 2 "Capacitor_SMD:C_1206_3216Metric_Pad1.42x1.75mm_HandSolder" H 10850 6050 50  0001 C CNN
F 3 "~" H 10850 6050 50  0001 C CNN
	1    10850 6050
	-1   0    0    -1  
$EndComp
Wire Wire Line
	10300 6200 10850 6200
Wire Wire Line
	10850 6200 10850 6150
Connection ~ 10300 6200
Wire Wire Line
	10800 5900 10850 5900
Wire Wire Line
	10850 5900 10850 5950
Wire Wire Line
	10800 5500 10850 5500
Wire Wire Line
	10850 5500 10850 5450
Wire Wire Line
	10300 5200 10850 5200
Wire Wire Line
	10850 5200 10850 5250
Connection ~ 10300 5200
Connection ~ 10850 5500
$Comp
L power:-10V #PWR041
U 1 1 5F5CF427
P 10850 5900
F 0 "#PWR041" H 10850 6000 50  0001 C CNN
F 1 "-10V" V 10750 5850 50  0000 L CNN
F 2 "" H 10850 5900 50  0001 C CNN
F 3 "" H 10850 5900 50  0001 C CNN
	1    10850 5900
	0    1    1    0   
$EndComp
Connection ~ 10850 5900
$Comp
L power:+5V #PWR032
U 1 1 5E062946
P 9450 5450
F 0 "#PWR032" H 9450 5300 50  0001 C CNN
F 1 "+5V" H 9465 5623 50  0000 C CNN
F 2 "" H 9450 5450 50  0001 C CNN
F 3 "" H 9450 5450 50  0001 C CNN
	1    9450 5450
	1    0    0    -1  
$EndComp
Wire Wire Line
	9450 5550 9450 5450
Wire Wire Line
	9300 5550 9450 5550
Connection ~ 9450 5550
$Comp
L power:GND #PWR039
U 1 1 5E10FCAE
P 9000 5850
F 0 "#PWR039" H 9000 5600 50  0001 C CNN
F 1 "GND" H 9005 5677 50  0000 C CNN
F 2 "" H 9000 5850 50  0001 C CNN
F 3 "" H 9000 5850 50  0001 C CNN
	1    9000 5850
	1    0    0    -1  
$EndComp
Wire Wire Line
	7900 5550 8050 5550
$Comp
L Device:C_Small C13
U 1 1 5E122C44
P 8050 5750
F 0 "C13" H 8050 5850 50  0000 L CNN
F 1 "10uF" H 7750 5650 50  0000 L CNN
F 2 "Capacitor_SMD:C_1210_3225Metric" H 8050 5750 50  0001 C CNN
F 3 "~" H 8050 5750 50  0001 C CNN
	1    8050 5750
	-1   0    0    -1  
$EndComp
$Comp
L Device:C_Small C14
U 1 1 5E124415
P 8550 5750
F 0 "C14" H 8550 5850 50  0000 L CNN
F 1 "10uf" H 8600 5650 50  0000 L CNN
F 2 "Capacitor_SMD:C_1210_3225Metric" H 8550 5750 50  0001 C CNN
F 3 "~" H 8550 5750 50  0001 C CNN
	1    8550 5750
	1    0    0    -1  
$EndComp
$Comp
L power:GND #PWR038
U 1 1 5E124CE4
P 8550 5850
F 0 "#PWR038" H 8550 5600 50  0001 C CNN
F 1 "GND" H 8555 5677 50  0000 C CNN
F 2 "" H 8550 5850 50  0001 C CNN
F 3 "" H 8550 5850 50  0001 C CNN
	1    8550 5850
	1    0    0    -1  
$EndComp
$Comp
L power:GND #PWR037
U 1 1 5E124F96
P 8050 5850
F 0 "#PWR037" H 8050 5600 50  0001 C CNN
F 1 "GND" H 8055 5677 50  0000 C CNN
F 2 "" H 8050 5850 50  0001 C CNN
F 3 "" H 8050 5850 50  0001 C CNN
	1    8050 5850
	1    0    0    -1  
$EndComp
Wire Wire Line
	8050 5650 8050 5550
Wire Wire Line
	8550 5650 8550 5550
Wire Wire Line
	8550 5550 8700 5550
Wire Wire Line
	9450 5650 9450 5550
$Comp
L power:GND #PWR040
U 1 1 5E12EA67
P 9450 5850
F 0 "#PWR040" H 9450 5600 50  0001 C CNN
F 1 "GND" H 9455 5677 50  0000 C CNN
F 2 "" H 9450 5850 50  0001 C CNN
F 3 "" H 9450 5850 50  0001 C CNN
	1    9450 5850
	1    0    0    -1  
$EndComp
$Comp
L Device:L L1
U 1 1 5E134C9B
P 8300 5550
F 0 "L1" V 8490 5550 50  0000 C CNN
F 1 "22uH" V 8399 5550 50  0000 C CNN
F 2 "Local_footprints:INDPM6060X300N" H 8300 5550 50  0001 C CNN
F 3 "~" H 8300 5550 50  0001 C CNN
	1    8300 5550
	0    -1   -1   0   
$EndComp
Wire Wire Line
	8150 5550 8050 5550
Connection ~ 8050 5550
Wire Wire Line
	8450 5550 8550 5550
Connection ~ 8550 5550
Wire Notes Line width 20 style dash_dot rgb(255, 0, 0)
	8500 6250 6950 6250
Text Notes 7040 6410 0    100  ~ 20
Power Supply Unit
Wire Notes Line width 20 style dash_dot rgb(255, 0, 0)
	8550 6250 8550 6450
Wire Wire Line
	7450 5550 7550 5550
Connection ~ 7550 5550
Wire Wire Line
	7600 5550 7550 5550
Wire Wire Line
	7550 5400 7550 5550
$Comp
L power:GND #PWR036
U 1 1 5E1B512D
P 7550 5850
F 0 "#PWR036" H 7550 5600 50  0001 C CNN
F 1 "GND" H 7555 5677 50  0000 C CNN
F 2 "" H 7550 5850 50  0001 C CNN
F 3 "" H 7550 5850 50  0001 C CNN
	1    7550 5850
	1    0    0    -1  
$EndComp
Wire Wire Line
	7450 5650 7550 5650
Wire Wire Line
	7550 5650 7550 5850
$Comp
L Regulator_Linear:L7805 U8
U 1 1 5E106625
P 9000 5550
F 0 "U8" H 8850 5800 50  0000 C CNN
F 1 "TSR2-2450" H 9000 5701 50  0000 C CNN
F 2 "Local_footprints:TSR2-2450" H 9025 5400 50  0001 L CIN
F 3 "http://www.st.com/content/ccc/resource/technical/document/datasheet/41/4f/b3/b0/12/d4/47/88/CD00000444.pdf/files/CD00000444.pdf/jcr:content/translations/en.CD00000444.pdf" H 9000 5500 50  0001 C CNN
	1    9000 5550
	1    0    0    -1  
$EndComp
$Comp
L Device:D_ALT D1
U 1 1 5E08FF22
P 7750 5550
F 0 "D1" H 7796 5471 50  0000 R CNN
F 1 "1N4007" H 7900 5650 50  0000 R CNN
F 2 "Local_footprints:DO-214AC(SMA)" H 7750 5550 50  0001 C CNN
F 3 "~" H 7750 5550 50  0001 C CNN
	1    7750 5550
	-1   0    0    1   
$EndComp
$Comp
L Device:C_Small C15
U 1 1 5E1225D4
P 9450 5750
F 0 "C15" H 9450 5850 50  0000 L CNN
F 1 "10uf" H 9500 5650 50  0000 L CNN
F 2 "Capacitor_SMD:C_1210_3225Metric" H 9450 5750 50  0001 C CNN
F 3 "~" H 9450 5750 50  0001 C CNN
	1    9450 5750
	-1   0    0    -1  
$EndComp
Wire Notes Line width 20 style dash_dot rgb(255, 0, 0)
	6950 6450 6950 5000
$Comp
L power:+10V #PWR033
U 1 1 5F5CE5F3
P 10850 5500
F 0 "#PWR033" H 10850 5350 50  0001 C CNN
F 1 "+10V" V 10950 5450 50  0000 L CNN
F 2 "" H 10850 5500 50  0001 C CNN
F 3 "" H 10850 5500 50  0001 C CNN
	1    10850 5500
	0    1    1    0   
$EndComp
Wire Notes Line width 20 style dash_dot rgb(255, 0, 0)
	11150 5000 11150 6450
Wire Notes Line width 20 style dash_dot rgb(255, 0, 0)
	6950 5000 11150 5000
Wire Notes Line width 20 style dash_dot rgb(255, 0, 0)
	11150 6450 6950 6450
$Comp
L Device:R_US R3
U 1 1 5F8B4A2B
P 5800 1900
F 0 "R3" V 5750 2050 50  0000 R CNN
F 1 "100k" V 5900 2000 50  0000 R CNN
F 2 "Capacitor_SMD:C_1206_3216Metric_Pad1.42x1.75mm_HandSolder" V 5840 1890 50  0001 C CNN
F 3 "~" H 5800 1900 50  0001 C CNN
	1    5800 1900
	0    -1   1    0   
$EndComp
Wire Wire Line
	5950 1900 6450 1900
$Comp
L Device:R_US R4
U 1 1 5F8B4FB2
P 5950 2050
F 0 "R4" V 5900 2200 50  0000 R CNN
F 1 "100k" V 6050 2150 50  0000 R CNN
F 2 "Capacitor_SMD:C_1206_3216Metric_Pad1.42x1.75mm_HandSolder" V 5990 2040 50  0001 C CNN
F 3 "~" H 5950 2050 50  0001 C CNN
	1    5950 2050
	1    0    0    1   
$EndComp
$Comp
L power:GND #PWR010
U 1 1 5F8CB8B6
P 5950 2200
F 0 "#PWR010" H 5950 1950 50  0001 C CNN
F 1 "GND" H 5955 2027 50  0000 C CNN
F 2 "" H 5950 2200 50  0001 C CNN
F 3 "" H 5950 2200 50  0001 C CNN
	1    5950 2200
	1    0    0    -1  
$EndComp
Connection ~ 5950 1900
Connection ~ 6700 4700
Wire Wire Line
	6700 4600 6700 4700
Connection ~ 6700 4600
Wire Wire Line
	6700 4500 6700 4600
Connection ~ 6700 4500
Connection ~ 6700 4400
Wire Wire Line
	6700 4400 6700 4350
Wire Wire Line
	6700 4400 6700 4500
Wire Wire Line
	6700 4900 6700 5000
Connection ~ 6700 4900
Wire Wire Line
	6700 4800 6700 4900
Connection ~ 6700 4800
Wire Wire Line
	6700 4700 6700 4800
Wire Wire Line
	5400 4400 6200 4400
Connection ~ 5400 4400
Wire Wire Line
	5400 4350 5400 4400
Wire Wire Line
	5500 4500 6200 4500
Connection ~ 5500 4500
Wire Wire Line
	5500 4350 5500 4500
Wire Wire Line
	5600 4600 6200 4600
Connection ~ 5600 4600
Wire Wire Line
	5600 4350 5600 4600
Wire Wire Line
	5700 4700 6200 4700
Connection ~ 5700 4700
Wire Wire Line
	5700 4350 5700 4700
Wire Wire Line
	5800 4800 6200 4800
Connection ~ 5800 4800
Wire Wire Line
	5800 4350 5800 4800
Wire Wire Line
	5900 4900 6200 4900
Connection ~ 5900 4900
Wire Wire Line
	5900 4350 5900 4900
Wire Wire Line
	6000 5000 6200 5000
Connection ~ 6000 5000
Wire Wire Line
	6000 4350 6000 5000
Wire Wire Line
	6100 5100 6100 4350
Wire Wire Line
	5350 5000 6000 5000
Wire Wire Line
	5350 4900 5900 4900
Wire Wire Line
	5350 4800 5800 4800
Wire Wire Line
	5350 4700 5700 4700
Wire Wire Line
	5350 4600 5600 4600
Wire Wire Line
	5350 4500 5500 4500
Wire Wire Line
	5350 4400 5400 4400
$Comp
L power:+5V #PWR027
U 1 1 5F58416E
P 6700 4350
F 0 "#PWR027" H 6700 4200 50  0001 C CNN
F 1 "+5V" H 6800 4450 50  0000 C CNN
F 2 "" H 6700 4350 50  0001 C CNN
F 3 "" H 6700 4350 50  0001 C CNN
	1    6700 4350
	-1   0    0    -1  
$EndComp
$Comp
L Connector_Generic:Conn_02x07_Odd_Even J4
U 1 1 5F58415B
P 6400 4700
F 0 "J4" H 6400 5100 50  0000 C CNN
F 1 "Conn_02x07_Top_Bottom" H 6800 4250 50  0001 C CNN
F 2 "Connector_PinSocket_2.54mm:PinSocket_2x07_P2.54mm_Vertical" H 6400 4700 50  0001 C CNN
F 3 "~" H 6400 4700 50  0001 C CNN
	1    6400 4700
	1    0    0    -1  
$EndComp
$Comp
L 4xxx:4017 U5
U 1 1 5F583F90
P 3650 4900
F 0 "U5" H 3400 5550 50  0000 C CNN
F 1 "4017" H 3800 4150 50  0000 C CNN
F 2 "Package_DIP:DIP-16_W7.62mm_LongPads" H 3650 4900 50  0001 C CNN
F 3 "http://www.intersil.com/content/dam/Intersil/documents/cd40/cd4017bms-22bms.pdf" H 3650 4900 50  0001 C CNN
	1    3650 4900
	1    0    0    -1  
$EndComp
$Comp
L Device:R_Network08 RN1
U 1 1 5F575B8D
P 5800 4150
F 0 "RN1" H 6188 4196 50  0000 L CNN
F 1 "10k" H 6188 4105 50  0000 L CNN
F 2 "Resistor_THT:R_Array_SIP9" V 6275 4150 50  0001 C CNN
F 3 "http://www.vishay.com/docs/31509/csc.pdf" H 5800 4150 50  0001 C CNN
	1    5800 4150
	1    0    0    -1  
$EndComp
$Comp
L power:+5V #PWR020
U 1 1 5F64D7D6
P 5400 3950
F 0 "#PWR020" H 5400 3800 50  0001 C CNN
F 1 "+5V" H 5500 4050 50  0000 C CNN
F 2 "" H 5400 3950 50  0001 C CNN
F 3 "" H 5400 3950 50  0001 C CNN
	1    5400 3950
	-1   0    0    -1  
$EndComp
Wire Wire Line
	2950 4600 2950 4400
Wire Wire Line
	2950 4400 3150 4400
Wire Wire Line
	2850 4600 2950 4600
Wire Wire Line
	1950 4050 1950 4600
Wire Wire Line
	2250 4500 2100 4500
Wire Wire Line
	2100 4500 2100 4900
Wire Wire Line
	2100 4900 1250 4900
Connection ~ 1250 4900
Wire Wire Line
	1250 4900 1250 5100
Wire Wire Line
	1900 4400 2250 4400
Text Label 2050 4400 0    50   ~ 0
S_H
Text Label 1550 4050 0    50   ~ 0
STR
Wire Wire Line
	5550 2100 5500 2100
$Comp
L Device:C_Small C4
U 1 1 5F5840E9
P 4400 1800
F 0 "C4" V 4300 1850 50  0000 R CNN
F 1 "100n" V 4500 1850 50  0000 R CNN
F 2 "Capacitor_SMD:C_0805_2012Metric_Pad1.15x1.40mm_HandSolder" H 4400 1800 50  0001 C CNN
F 3 "~" H 4400 1800 50  0001 C CNN
	1    4400 1800
	0    -1   1    0   
$EndComp
Wire Wire Line
	5500 1900 5650 1900
$Comp
L power:GND #PWR012
U 1 1 5F583F84
P 5000 2300
F 0 "#PWR012" H 5000 2050 50  0001 C CNN
F 1 "GND" H 5005 2127 50  0000 C CNN
F 2 "" H 5000 2300 50  0001 C CNN
F 3 "" H 5000 2300 50  0001 C CNN
	1    5000 2300
	1    0    0    -1  
$EndComp
Wire Wire Line
	5000 1250 5000 1300
$Comp
L Audio:MSGEQ7 U1
U 1 1 5F5840C5
P 5000 1800
F 0 "U1" H 4650 2250 50  0000 C CNN
F 1 "MSGEQ7" H 5250 1350 50  0000 C CNN
F 2 "Package_DIP:DIP-8_W7.62mm_LongPads" H 5000 1800 50  0001 C CNN
F 3 "http://mix-sig.com/images/datasheets/MSGEQ7.pdf" H 5000 1800 50  0001 C CNN
	1    5000 1800
	1    0    0    -1  
$EndComp
Connection ~ 6100 5100
Wire Wire Line
	5350 5100 6100 5100
Wire Wire Line
	3150 6200 4500 6200
$Comp
L power:+5V #PWR?
U 1 1 5F83A462
P 2800 5950
AR Path="/5F83A462" Ref="#PWR?"  Part="1" 
AR Path="/5F5665FD/5F83A462" Ref="#PWR043"  Part="1" 
F 0 "#PWR043" H 2800 5800 50  0001 C CNN
F 1 "+5V" H 2815 6123 50  0000 C CNN
F 2 "" H 2800 5950 50  0001 C CNN
F 3 "" H 2800 5950 50  0001 C CNN
	1    2800 5950
	1    0    0    -1  
$EndComp
Wire Wire Line
	2800 5950 2800 6000
Connection ~ 2800 6000
Text Label 2100 5100 2    50   ~ 0
RST
$Comp
L power:+12V #PWR031
U 1 1 5F7225FB
P 7550 5400
F 0 "#PWR031" H 7550 5250 50  0001 C CNN
F 1 "+12V" H 7565 5573 50  0000 C CNN
F 2 "" H 7550 5400 50  0001 C CNN
F 3 "" H 7550 5400 50  0001 C CNN
	1    7550 5400
	1    0    0    -1  
$EndComp
Wire Wire Line
	7250 2850 7650 2850
$Comp
L Connector_Generic:Conn_01x02 J5
U 1 1 5F59B405
P 7250 5550
F 0 "J5" H 7168 5767 50  0000 C CNN
F 1 "Power_IN" H 7168 5676 50  0000 C CNN
F 2 "Connector_PinSocket_2.54mm:PinSocket_1x02_P2.54mm_Vertical" H 7250 5550 50  0001 C CNN
F 3 "~" H 7250 5550 50  0001 C CNN
	1    7250 5550
	-1   0    0    -1  
$EndComp
$Comp
L Device:R_US R1
U 1 1 5F6A6DE6
P 3650 1500
F 0 "R1" V 3600 1700 50  0000 R CNN
F 1 "22k" V 3750 1600 50  0000 R CNN
F 2 "Capacitor_SMD:C_1206_3216Metric_Pad1.42x1.75mm_HandSolder" V 3690 1490 50  0001 C CNN
F 3 "~" H 3650 1500 50  0001 C CNN
	1    3650 1500
	0    -1   1    0   
$EndComp
Wire Wire Line
	3450 1700 3500 1700
$Comp
L Connector_Generic:Conn_01x04 J3
U 1 1 5F881703
P 5650 2850
F 0 "J3" V 5614 2562 50  0000 R CNN
F 1 "GND_probes" V 5523 2562 50  0000 R CNN
F 2 "Connector_PinHeader_2.54mm:PinHeader_1x04_P2.54mm_Vertical" H 5650 2850 50  0001 C CNN
F 3 "~" H 5650 2850 50  0001 C CNN
	1    5650 2850
	0    -1   -1   0   
$EndComp
$Comp
L power:GND #PWR019
U 1 1 5F88279C
P 5700 3050
F 0 "#PWR019" H 5700 2800 50  0001 C CNN
F 1 "GND" H 5705 2877 50  0000 C CNN
F 2 "" H 5700 3050 50  0001 C CNN
F 3 "" H 5700 3050 50  0001 C CNN
	1    5700 3050
	1    0    0    -1  
$EndComp
Wire Wire Line
	5550 3050 5650 3050
Connection ~ 5650 3050
Wire Wire Line
	5650 3050 5700 3050
Connection ~ 5750 3050
Wire Wire Line
	5750 3050 5850 3050
Connection ~ 5700 3050
Wire Wire Line
	5700 3050 5750 3050
$Comp
L PJ-313:PJ-313 J1
U 1 1 5F5EC85C
P 3150 1700
F 0 "J1" H 3000 1450 50  0000 R CNN
F 1 "AudioIN" H 3250 1950 50  0000 R CNN
F 2 "Local_footprints:PJ-313" H 3150 1700 50  0001 C CNN
F 3 "" H 3150 1700 50  0001 C CNN
	1    3150 1700
	1    0    0    1   
$EndComp
Wire Wire Line
	3450 1500 3500 1500
Wire Wire Line
	3450 1900 3500 1900
Wire Wire Line
	3500 1900 3500 1950
$Comp
L Device:R_POT_US RV1
U 1 1 5F606545
P 4050 1800
F 0 "RV1" H 3982 1846 50  0000 R CNN
F 1 "50k" H 3982 1755 50  0000 R CNN
F 2 "Potentiometer_THT:Potentiometer_Runtron_RM-065_Vertical" H 4050 1800 50  0001 C CNN
F 3 "~" H 4050 1800 50  0001 C CNN
	1    4050 1800
	1    0    0    -1  
$EndComp
$Comp
L Device:R_US R2
U 1 1 5F5841A6
P 3650 1700
F 0 "R2" V 3600 1900 50  0000 R CNN
F 1 "22k" V 3750 1800 50  0000 R CNN
F 2 "Capacitor_SMD:C_1206_3216Metric_Pad1.42x1.75mm_HandSolder" V 3690 1690 50  0001 C CNN
F 3 "~" H 3650 1700 50  0001 C CNN
	1    3650 1700
	0    -1   1    0   
$EndComp
Wire Wire Line
	3800 1500 3800 1600
$Comp
L power:GND #PWR08
U 1 1 5F63A064
P 4050 1950
F 0 "#PWR08" H 4050 1700 50  0001 C CNN
F 1 "GND" H 4150 1850 50  0000 C CNN
F 2 "" H 4050 1950 50  0001 C CNN
F 3 "" H 4050 1950 50  0001 C CNN
	1    4050 1950
	1    0    0    -1  
$EndComp
Wire Wire Line
	4500 2100 4400 2100
Wire Wire Line
	4400 2100 4400 2250
Wire Wire Line
	3800 1600 4050 1600
Wire Wire Line
	4050 1600 4050 1650
Connection ~ 3800 1600
Wire Wire Line
	3800 1600 3800 1700
Wire Wire Line
	4200 1800 4300 1800
$Comp
L Graphic:Logo_Open_Hardware_Small #LOGO?
U 1 1 5F655F25
P 10900 6850
AR Path="/5F655F25" Ref="#LOGO?"  Part="1" 
AR Path="/5F5665FD/5F655F25" Ref="#LOGO2"  Part="1" 
F 0 "#LOGO2" H 10900 7125 50  0001 C CNN
F 1 "Logo_Open_Hardware_Small" H 10900 6625 50  0001 C CNN
F 2 "" H 10900 6850 50  0001 C CNN
F 3 "~" H 10900 6850 50  0001 C CNN
	1    10900 6850
	1    0    0    -1  
$EndComp
Text Label 4150 4400 0    50   ~ 0
FRST
Text GLabel 5525 1600 2    50   Input ~ 0
EN
Text GLabel 5525 1500 2    50   Input ~ 0
STR
Connection ~ 7650 2200
Wire Wire Line
	7250 2200 7250 2400
Wire Wire Line
	7600 2200 7650 2200
Wire Wire Line
	7250 2200 7300 2200
$Comp
L Device:R_US R5
U 1 1 5F584180
P 7450 2200
F 0 "R5" V 7400 2350 50  0000 R CNN
F 1 "620" V 7550 2200 50  0000 C CNN
F 2 "Capacitor_SMD:C_1206_3216Metric_Pad1.42x1.75mm_HandSolder" V 7490 2190 50  0001 C CNN
F 3 "~" H 7450 2200 50  0001 C CNN
	1    7450 2200
	0    -1   1    0   
$EndComp
Wire Wire Line
	8200 2850 8200 2950
Connection ~ 7650 2850
Wire Wire Line
	7650 2850 8200 2850
$Comp
L Device:R_US R8
U 1 1 5F77AC14
P 7650 2650
F 0 "R8" V 7550 2700 50  0000 R CNN
F 1 "1k" H 7750 2650 50  0000 C CNN
F 2 "Capacitor_SMD:C_1206_3216Metric_Pad1.42x1.75mm_HandSolder" V 7690 2640 50  0001 C CNN
F 3 "~" H 7650 2650 50  0001 C CNN
	1    7650 2650
	1    0    0    -1  
$EndComp
Wire Wire Line
	7650 2800 7650 2850
Text Notes 1200 5100 2    50   ~ 0
≈780Hz
Wire Wire Line
	5500 1500 5525 1500
Wire Wire Line
	5500 1600 5525 1600
$EndSCHEMATC
